{
  "name": "",
  "css_prefix_text": "icon-",
  "css_use_suffix": false,
  "hinting": true,
  "units_per_em": 1000,
  "ascent": 850,
  "glyphs": [
    {
      "uid": "fbaa0060aab5c27fda7a6fa1eb9d850c",
      "css": "noun_tv_1925854",
      "code": 59392,
      "src": "custom_icons",
      "selected": true,
      "svg": {
        "path": "M660.8 176H241.6L305.6 94.4C312 87.2 310.4 77.6 304 72S287.2 68 281.6 74.4L209.6 165.6 137.6 74.4C132 67.2 122.4 66.4 115.2 72S107.2 87.2 112.8 94.4L176 176H139.2C108.8 176 84 200.8 84 231.2V612.8C84 643.2 108.8 668 139.2 668H179.2V701.6C179.2 718.4 192.8 732 209.6 732H275.2C292 732 305.6 718.4 305.6 701.6V668H495.2V701.6C495.2 718.4 508.8 732 525.6 732H591.2C608 732 621.6 718.4 621.6 701.6V668H661.6C692 668 716.8 643.2 716.8 612.8V231.2C716 200.8 691.2 176 660.8 176ZM608.8 544.8C608.8 570.4 588 592 561.6 592H207.2C181.6 592 160 571.2 160 544.8V299.2C160 273.6 180.8 252 207.2 252H561.6C587.2 252 608.8 272.8 608.8 299.2V544.8ZM648.8 488.8V488.8C639.2 488.8 632 481.6 632 472.8S639.2 456.8 648 456.8 664 464 664 472.8 657.6 488.8 648.8 488.8ZM648.8 354.4V354.4C639.2 354.4 632 347.2 632 338.4S639.2 322.4 648 322.4 664 329.6 664 338.4 657.6 354.4 648.8 354.4Z",
        "width": 813
      },
      "search": [
        "noun_tv_1925854"
      ]
    }
  ]
}